{
  "version": 1,
  "type": "doc",
  "content": [
    {
      "type": "table",
      "attrs": {
        "isNumberColumnEnabled": false,
        "layout": "default"
      },
      "content": [
        {
          "type": "tableRow",
          "content": [
            {
              "type": "tableHeader",
              "attrs": {
                "colwidth": [
                  118
                ]
              },
              "content": [
                {
                  "type": "paragraph",
                  "content": []
                }
              ]
            },
            {
              "type": "tableHeader",
              "attrs": {
                "colwidth": [
                  640
                ]
              },
              "content": [
                {
                  "type": "paragraph",
                  "content": []
                }
              ]
            }
          ]
        },
        {
          "type": "tableRow",
          "content": [
            {
              "type": "tableCell",
              "attrs": {
                "colwidth": [
                  118
                ]
              },
              "content": [
                {
                  "type": "mediaSingle",
                  "attrs": {
                    "width": 100,
                    "layout": "center"
                  },
                  "content": [
                    {
                      "type": "media",
                      "attrs": {
                        "id": "a559980d-cd47-43e2-8377-27359fcb905f",
                        "type": "file",
                        "collection": "MediaServicesSample",
                        "width": 1604,
                        "height": 1868
                      }
                    },
                    {
                      "type": "caption",
                      "content": [
                        {
                          "type": "text",
                          "text": "this is a caption"
                        }
                      ]
                    }
                  ]
                }
              ]
            },
            {
              "type": "tableCell",
              "attrs": {
                "colwidth": [
                  640
                ]
              },
              "content": [
                {
                  "type": "paragraph",
                  "content": []
                }
              ]
            }
          ]
        },
        {
          "type": "tableRow",
          "content": [
            {
              "type": "tableCell",
              "attrs": {
                "colwidth": [
                  118
                ]
              },
              "content": [
                {
                  "type": "paragraph",
                  "content": []
                }
              ]
            },
            {
              "type": "tableCell",
              "attrs": {
                "colwidth": [
                  640
                ]
              },
              "content": [
                {
                  "type": "paragraph",
                  "content": []
                }
              ]
            }
          ]
        }
      ]
    },
    {
      "type": "paragraph",
      "content": []
    }
  ]
}
